<?xml version="1.0" ?>
<sdf version="1.3">
  <world name="default">


    <physics type="ode">
      <gravity>0 0 -9.81</gravity>
      <ode>
        <solver>
          <type>quick</type>
          <dt>0.001</dt>
          <iters>40</iters>
          <sor>1.0</sor>
        </solver>
        <constraints>
          <cfm>0.0</cfm>
          <erp>0.2</erp>
          <contact_max_correcting_vel>100.0</contact_max_correcting_vel>
          <contact_surface_layer>0.0</contact_surface_layer>
        </constraints>
      </ode>
    </physics>

    <!-- A global light source -->
    <include>
      <uri>model://sun</uri>
    </include>

    <!-- A ground plane 
    <include>
      <uri>model://ground_plane</uri>
    </include>
-->

    <!-- Fire Hose -->
    <include>
      <uri>model://fire_hose</uri>
      <pose>999 -2.1 1.008562 0 0 1.57079</pose>
    </include>

    <!-- Standpipe -->
    <include>
      <uri>model://standpipe</uri>
      <pose>999 0.3 0.8 0 0 0</pose>
    </include>

    <!-- Atlas -->
    <include>
      <!-- uri>model://atlas_sandia_hand</uri -->
      <!-- uri>model://atlas_irobot_hand</uri -->
      <uri>model://atlas</uri>
      <pose>0 60 1.2 0 0 0</pose>
    </include>

    <!-- Atlas, fire hose plugins -->
    <plugin filename="libVRCPlugin.so" name="vrc_plugin">
      <atlas>
        <model_name>atlas</model_name>
        <pin_link>utorso</pin_link>
      </atlas>
      <drc_fire_hose>
        <fire_hose_model>fire_hose</fire_hose_model>
        <coupling_link>coupling</coupling_link>
        <standpipe_model>standpipe</standpipe_model>
        <spout_link>standpipe</spout_link>
        <thread_pitch>-1000</thread_pitch>
        <coupling_relative_pose>
          1.17038e-05 -0.125623 0.35 -0.0412152
          -1.57078 1.61199
        </coupling_relative_pose>
      </drc_fire_hose>
    </plugin>

    <model name="heightmap">
      <static>true</static>
      <link name="link">
        <collision name="collision">
          <geometry>
            <heightmap>
              <uri>file://worlds/re2_atlas_walk_01.png</uri>
              <size>129 129 10</size>
              <pos>0 0 0</pos>
            </heightmap>
          </geometry>
        </collision>

        <visual name="visual">
          <geometry>
            <heightmap>
              <texture>
                <diffuse>file://media/materials/textures/dirt_diffusespecular.png
                </diffuse>
                <normal>file://media/materials/textures/flat_normal.png
                </normal>
                <size>50</size>
              </texture>
              <texture>
                <diffuse>file://media/materials/textures/grass_diffusespecular.png
                </diffuse>
                <normal>file://media/materials/textures/flat_normal.png
                </normal>
                <size>20</size>
              </texture>
              <texture>
                <diffuse>file://media/materials/textures/fungus_diffusespecular.png
                </diffuse>
                <normal>file://media/materials/textures/flat_normal.png
                </normal>
                <size>80</size>
              </texture>
              <blend>
                <min_height>2</min_height>
                <fade_dist>5</fade_dist>
              </blend>
              <blend>
                <min_height>4</min_height>
                <fade_dist>5</fade_dist>
              </blend>
              <uri>file://worlds/re2_atlas_walk_01.png</uri>
              <size>129 129 10</size>
              <pos>0 0 0</pos>
            </heightmap>
          </geometry>
        </visual>
      </link>
    </model>
  </world>
</sdf>
