<?xml version="1.0" ?>
<sdf version="1.3">
  <world name="default">

    <!-- Light Source -->
    <light type="directional" name="sun">
      <cast_shadows>true</cast_shadows>

      <pose>0 0 100 0 0 0</pose>
      <diffuse>0.9 0.9 0.9 1</diffuse>
      <specular>0.1 0.1 0.1 1</specular>

      <attenuation>
        <range>1000</range>
        <constant>0.9</constant>
        <linear>0.01</linear>
        <quadratic>0.001</quadratic>
      </attenuation>

      <direction>0.2 0.0 -1.0</direction>
    </light>

    <!-- Point Light Source -->
    <light type="point" name="light_bulb">
      <cast_shadows>false</cast_shadows>
      <pose>-14 0 5 0 0 0</pose>
      <diffuse>0.5 0.5 0.5 1</diffuse>
      <specular>0.0 0.0 0.0 1</specular>

      <attenuation>
        <range>80</range>
        <constant>0.9</constant>
        <linear>0.01</linear>
        <quadratic>0.001</quadratic>
      </attenuation>
    </light>

    <!-- Point Light Source -->
    <light type="point" name="light_bulb_2">
      <cast_shadows>false</cast_shadows>
      <pose>-2 -4 5 0 0 0</pose>
      <diffuse>0.5 0.5 0.5 1</diffuse>
      <specular>0.0 0.0 0.0 1</specular>

      <attenuation>
        <range>80</range>
        <constant>0.9</constant>
        <linear>0.01</linear>
        <quadratic>0.001</quadratic>
      </attenuation>
    </light>

    <include>
      <uri>model://grass_plane</uri>
    </include>


    <include>
      <uri>model://table</uri>
      <static>true</static>
      <pose>-6.2 -14.6 0 0 0 1.5707</pose>
    </include>

    <include>
      <uri>model://vrc_firehose_long</uri>
      <pose>-6.5 -15.2 1.1 0 0 1.5707</pose>
    </include>

    <include>
      <uri>model://vrc_standpipe</uri>
      <pose>-9.32 -14.5 1.2 -1.5707 0 0</pose>
    </include>

    <include>
      <uri>model://vrc_valve</uri>
      <pose>-6 0 1.2 -1.5707 0 0</pose>
    </include>

    <include>
      <uri>model://atlas_sandia_hands</uri>
      <pose>-7 -15 1.0 0 0 0</pose>
    </include>

    <plugin filename="libVRCPlugin.so" name="vrc_plugin">
      <atlas>
         <model_name>atlas</model_name>
         <pin_link>utorso</pin_link>
      </atlas>
      <drc_vehicle>
        <model_name>golf_cart</model_name>
        <seat_link>chassis</seat_link>
      </drc_vehicle>
      <drc_fire_hose>
        <fire_hose_model>fire_hose</fire_hose_model>
        <coupling_link>coupling</coupling_link>
        <standpipe_model>standpipe</standpipe_model>
        <spout_link>standpipe</spout_link>
        <thread_pitch>-1000</thread_pitch>
        <coupling_relative_pose>
          1.17038e-05 -0.125623 0.35 -0.0412152 -1.57078 1.61199
        </coupling_relative_pose>
      </drc_fire_hose>
    </plugin>


  </world>
</sdf>
